%YAML 1.1
%TAG !u! tag:unity3d.com,2011:
--- !u!114 &11400000
MonoBehaviour:
  m_ObjectHideFlags: 0
  m_CorrespondingSourceObject: {fileID: 0}
  m_PrefabInstance: {fileID: 0}
  m_PrefabAsset: {fileID: 0}
  m_GameObject: {fileID: 0}
  m_Enabled: 1
  m_EditorHideFlags: 0
  m_Script: {fileID: 11500000, guid: bbb281ee3bf0b054c82ac2347e9e782c, type: 3}
  m_Name: Default Local Group
  m_EditorClassIdentifier: 
  m_GroupName: Default Local Group
  m_Data:
    m_SerializedData: []
  m_GUID: 00363c7ecced9dd4c8c71e543ff514e9
  m_SerializeEntries:
  - m_GUID: 2623d6cc0169c4241891f6a73f6bbd23
    m_Address: LuaScript/UF_SongPlayer_SpellBaseScript
    m_ReadOnly: 0
    m_SerializedLabels: []
  - m_GUID: 17be34bb69f4dba48b118e1157eb32ca
    m_Address: Weapon/UF_SongPlayer_SongPlayer
    m_ReadOnly: 0
    m_SerializedLabels: []
  - m_GUID: f9a62dc9e6c3eee4b9f7b55238babef8
    m_Address: LuaScript/UF_SongPlayer_MusicScript
    m_ReadOnly: 0
    m_SerializedLabels: []
  - m_GUID: 4905b6bfa5d2db04d8695acf3ad460fc
    m_Address: ICon/UF_SongPlayer_SongPlayer
    m_ReadOnly: 0
    m_SerializedLabels: []
  - m_GUID: 7a7d0922211a5164cacd9fd4e5ec6d80
    m_Address: Entry
    m_ReadOnly: 0
    m_SerializedLabels: []
  m_ReadOnly: 0
  m_Settings: {fileID: 11400000, guid: 26cc198b6f316b347a0fe5276ff50b16, type: 2}
  m_SchemaSet:
    m_Schemas:
    - {fileID: 11400000, guid: 6d7e4e388465619448dd327c539fd646, type: 2}
    - {fileID: 11400000, guid: 1d9135c94f7689a4f9d888fffd08ac08, type: 2}
